%YAML 1.1
%TAG !u! tag:unity3d.com,2011:
--- !u!1001 &100100000
Prefab:
  m_ObjectHideFlags: 1
  serializedVersion: 2
  m_Modification:
    m_TransformParent: {fileID: 0}
    m_Modifications: []
    m_RemovedComponents: []
  m_SourcePrefab: {fileID: 0}
  m_RootGameObject: {fileID: 1028824138140006}
  m_IsPrefabAsset: 1
--- !u!1 &1028824138140006
GameObject:
  m_ObjectHideFlags: 0
  m_CorrespondingSourceObject: {fileID: 0}
  m_PrefabInternal: {fileID: 100100000}
  serializedVersion: 6
  m_Component:
  - component: {fileID: 4302322569310402}
  - component: {fileID: 95057467393681272}
  - component: {fileID: 114731488935830358}
  - component: {fileID: 54446093939707212}
  - component: {fileID: 114174503958260724}
  - component: {fileID: 114261372939883760}
  - component: {fileID: 114092344845318102}
  - component: {fileID: 114169642532466072}
  - component: {fileID: 114965072194174498}
  - component: {fileID: 65254249309108804}
  m_Layer: 12
  m_Name: Plant_Flowering
  m_TagString: Untagged
  m_Icon: {fileID: 0}
  m_NavMeshLayer: 0
  m_StaticEditorFlags: 0
  m_IsActive: 1
--- !u!1 &1064698121900662
GameObject:
  m_ObjectHideFlags: 1
  m_CorrespondingSourceObject: {fileID: 0}
  m_PrefabInternal: {fileID: 100100000}
  serializedVersion: 6
  m_Component:
  - component: {fileID: 4020983941160590}
  m_Layer: 0
  m_Name: b_Stem04
  m_TagString: Untagged
  m_Icon: {fileID: 0}
  m_NavMeshLayer: 0
  m_StaticEditorFlags: 0
  m_IsActive: 1
--- !u!1 &1087997724819382
GameObject:
  m_ObjectHideFlags: 1
  m_CorrespondingSourceObject: {fileID: 0}
  m_PrefabInternal: {fileID: 100100000}
  serializedVersion: 6
  m_Component:
  - component: {fileID: 4189864511891856}
  m_Layer: 0
  m_Name: b_Stem08
  m_TagString: Untagged
  m_Icon: {fileID: 0}
  m_NavMeshLayer: 0
  m_StaticEditorFlags: 0
  m_IsActive: 1
--- !u!1 &1229262043212852
GameObject:
  m_ObjectHideFlags: 0
  m_CorrespondingSourceObject: {fileID: 0}
  m_PrefabInternal: {fileID: 100100000}
  serializedVersion: 6
  m_Component:
  - component: {fileID: 4866381918158780}
  - component: {fileID: 82665421538801248}
  - component: {fileID: 114202066366666556}
  m_Layer: 0
  m_Name: PlantAudioController
  m_TagString: Untagged
  m_Icon: {fileID: 0}
  m_NavMeshLayer: 0
  m_StaticEditorFlags: 0
  m_IsActive: 1
--- !u!1 &1303837847496732
GameObject:
  m_ObjectHideFlags: 1
  m_CorrespondingSourceObject: {fileID: 0}
  m_PrefabInternal: {fileID: 100100000}
  serializedVersion: 6
  m_Component:
  - component: {fileID: 4381905994699098}
  m_Layer: 0
  m_Name: b_Stem07
  m_TagString: Untagged
  m_Icon: {fileID: 0}
  m_NavMeshLayer: 0
  m_StaticEditorFlags: 0
  m_IsActive: 1
--- !u!1 &1317190322284112
GameObject:
  m_ObjectHideFlags: 1
  m_CorrespondingSourceObject: {fileID: 0}
  m_PrefabInternal: {fileID: 100100000}
  serializedVersion: 6
  m_Component:
  - component: {fileID: 4795466317524016}
  m_Layer: 0
  m_Name: b_Stem02
  m_TagString: Untagged
  m_Icon: {fileID: 0}
  m_NavMeshLayer: 0
  m_StaticEditorFlags: 0
  m_IsActive: 1
--- !u!1 &1326073773641576
GameObject:
  m_ObjectHideFlags: 0
  m_CorrespondingSourceObject: {fileID: 0}
  m_PrefabInternal: {fileID: 100100000}
  serializedVersion: 6
  m_Component:
  - component: {fileID: 4338989222700296}
  - component: {fileID: 137425570155143246}
  m_Layer: 0
  m_Name: Stem
  m_TagString: Untagged
  m_Icon: {fileID: 0}
  m_NavMeshLayer: 0
  m_StaticEditorFlags: 0
  m_IsActive: 1
--- !u!1 &1398170567163056
GameObject:
  m_ObjectHideFlags: 1
  m_CorrespondingSourceObject: {fileID: 0}
  m_PrefabInternal: {fileID: 100100000}
  serializedVersion: 6
  m_Component:
  - component: {fileID: 4227128000366044}
  m_Layer: 0
  m_Name: b_Stem06
  m_TagString: Untagged
  m_Icon: {fileID: 0}
  m_NavMeshLayer: 0
  m_StaticEditorFlags: 0
  m_IsActive: 1
--- !u!1 &1415087103389592
GameObject:
  m_ObjectHideFlags: 1
  m_CorrespondingSourceObject: {fileID: 0}
  m_PrefabInternal: {fileID: 100100000}
  serializedVersion: 6
  m_Component:
  - component: {fileID: 4344670256907710}
  m_Layer: 0
  m_Name: b_Stem03
  m_TagString: Untagged
  m_Icon: {fileID: 0}
  m_NavMeshLayer: 0
  m_StaticEditorFlags: 0
  m_IsActive: 1
--- !u!1 &1584962516073872
GameObject:
  m_ObjectHideFlags: 1
  m_CorrespondingSourceObject: {fileID: 0}
  m_PrefabInternal: {fileID: 100100000}
  serializedVersion: 6
  m_Component:
  - component: {fileID: 4818666077122890}
  - component: {fileID: 33068847053050036}
  - component: {fileID: 96007642978714804}
  m_Layer: 14
  m_Name: Imprint Trail
  m_TagString: Untagged
  m_Icon: {fileID: 0}
  m_NavMeshLayer: 0
  m_StaticEditorFlags: 0
  m_IsActive: 1
--- !u!1 &1611563473004854
GameObject:
  m_ObjectHideFlags: 1
  m_CorrespondingSourceObject: {fileID: 0}
  m_PrefabInternal: {fileID: 100100000}
  serializedVersion: 6
  m_Component:
  - component: {fileID: 4181576894049402}
  m_Layer: 0
  m_Name: b_Stem05
  m_TagString: Untagged
  m_Icon: {fileID: 0}
  m_NavMeshLayer: 0
  m_StaticEditorFlags: 0
  m_IsActive: 1
--- !u!1 &1925071244973200
GameObject:
  m_ObjectHideFlags: 0
  m_CorrespondingSourceObject: {fileID: 0}
  m_PrefabInternal: {fileID: 100100000}
  serializedVersion: 6
  m_Component:
  - component: {fileID: 4267816184304960}
  - component: {fileID: 33670542328489334}
  - component: {fileID: 23658705452971608}
  m_Layer: 14
  m_Name: Imprint
  m_TagString: Untagged
  m_Icon: {fileID: 0}
  m_NavMeshLayer: 0
  m_StaticEditorFlags: 0
  m_IsActive: 1
--- !u!1 &1937371849299148
GameObject:
  m_ObjectHideFlags: 1
  m_CorrespondingSourceObject: {fileID: 0}
  m_PrefabInternal: {fileID: 100100000}
  serializedVersion: 6
  m_Component:
  - component: {fileID: 4633159390412432}
  m_Layer: 0
  m_Name: b_Stem01
  m_TagString: Untagged
  m_Icon: {fileID: 0}
  m_NavMeshLayer: 0
  m_StaticEditorFlags: 0
  m_IsActive: 1
--- !u!1 &1945324208440620
GameObject:
  m_ObjectHideFlags: 0
  m_CorrespondingSourceObject: {fileID: 0}
  m_PrefabInternal: {fileID: 100100000}
  serializedVersion: 6
  m_Component:
  - component: {fileID: 4521704662299462}
  m_Layer: 0
  m_Name: b_Stem00
  m_TagString: Untagged
  m_Icon: {fileID: 0}
  m_NavMeshLayer: 0
  m_StaticEditorFlags: 0
  m_IsActive: 1
--- !u!4 &4020983941160590
Transform:
  m_ObjectHideFlags: 1
  m_CorrespondingSourceObject: {fileID: 0}
  m_PrefabInternal: {fileID: 100100000}
  m_GameObject: {fileID: 1064698121900662}
  m_LocalRotation: {x: 1.029469e-15, y: -2.600912e-10, z: 6.9849193e-10, w: 1}
  m_LocalPosition: {x: -0.12299559, y: -0.0000003633499, z: 1.0539907e-13}
  m_LocalScale: {x: 0.5556406, y: 1.0000001, z: 1}
  m_Children:
  - {fileID: 4181576894049402}
  m_Father: {fileID: 4344670256907710}
  m_RootOrder: 0
  m_LocalEulerAnglesHint: {x: 0, y: 0, z: 0}
--- !u!4 &4181576894049402
Transform:
  m_ObjectHideFlags: 1
  m_CorrespondingSourceObject: {fileID: 0}
  m_PrefabInternal: {fileID: 100100000}
  m_GameObject: {fileID: 1611563473004854}
  m_LocalRotation: {x: 3.3200098e-15, y: -1.0305869e-16, z: -0.0000000018626451, w: 1}
  m_LocalPosition: {x: -0.105438136, y: -0.00000025434494, z: -8.662937e-15}
  m_LocalScale: {x: 0.33107302, y: 0.9999999, z: 1}
  m_Children:
  - {fileID: 4227128000366044}
  m_Father: {fileID: 4020983941160590}
  m_RootOrder: 0
  m_LocalEulerAnglesHint: {x: 0, y: 0, z: 0}
--- !u!4 &4189864511891856
Transform:
  m_ObjectHideFlags: 1
  m_CorrespondingSourceObject: {fileID: 0}
  m_PrefabInternal: {fileID: 100100000}
  m_GameObject: {fileID: 1087997724819382}
  m_LocalRotation: {x: -4.1357286e-31, y: -8.539815e-24, z: -0.000000048428785, w: 1}
  m_LocalPosition: {x: -0.12588465, y: 0, z: 4.5836898e-10}
  m_LocalScale: {x: 0.4081997, y: 1, z: 1}
  m_Children: []
  m_Father: {fileID: 4381905994699098}
  m_RootOrder: 0
  m_LocalEulerAnglesHint: {x: 0, y: 0, z: 0}
--- !u!4 &4227128000366044
Transform:
  m_ObjectHideFlags: 1
  m_CorrespondingSourceObject: {fileID: 0}
  m_PrefabInternal: {fileID: 100100000}
  m_GameObject: {fileID: 1398170567163056}
  m_LocalRotation: {x: 3.824448e-16, y: -1.2423337e-16, z: 0.0000000037252903, w: 1}
  m_LocalPosition: {x: -0.12294773, y: -0.000000024223327, z: 4.477136e-10}
  m_LocalScale: {x: 0.62846524, y: 1, z: 1}
  m_Children:
  - {fileID: 4381905994699098}
  m_Father: {fileID: 4181576894049402}
  m_RootOrder: 0
  m_LocalEulerAnglesHint: {x: 0, y: 0, z: 0}
--- !u!4 &4267816184304960
Transform:
  m_ObjectHideFlags: 1
  m_CorrespondingSourceObject: {fileID: 0}
  m_PrefabInternal: {fileID: 100100000}
  m_GameObject: {fileID: 1925071244973200}
  m_LocalRotation: {x: 0.7071068, y: -0, z: -0, w: 0.7071068}
  m_LocalPosition: {x: 0, y: -5, z: 0}
  m_LocalScale: {x: 2, y: 2, z: 3}
  m_Children:
  - {fileID: 4818666077122890}
  m_Father: {fileID: 4302322569310402}
  m_RootOrder: 3
  m_LocalEulerAnglesHint: {x: 90, y: 0, z: 0}
--- !u!4 &4302322569310402
Transform:
  m_ObjectHideFlags: 1
  m_CorrespondingSourceObject: {fileID: 0}
  m_PrefabInternal: {fileID: 100100000}
  m_GameObject: {fileID: 1028824138140006}
  m_LocalRotation: {x: 0, y: 0, z: 0, w: 1}
  m_LocalPosition: {x: -4.7581897, y: 0, z: -8.907532}
  m_LocalScale: {x: 1, y: 1, z: 1}
  m_Children:
  - {fileID: 4521704662299462}
  - {fileID: 4338989222700296}
  - {fileID: 4866381918158780}
  - {fileID: 4267816184304960}
  m_Father: {fileID: 0}
  m_RootOrder: 0
  m_LocalEulerAnglesHint: {x: 0, y: 0, z: 0}
--- !u!4 &4338989222700296
Transform:
  m_ObjectHideFlags: 1
  m_CorrespondingSourceObject: {fileID: 0}
  m_PrefabInternal: {fileID: 100100000}
  m_GameObject: {fileID: 1326073773641576}
  m_LocalRotation: {x: -0.7071068, y: 0, z: 0, w: 0.7071068}
  m_LocalPosition: {x: -0, y: 0, z: 0}
  m_LocalScale: {x: 1, y: 1, z: 1}
  m_Children: []
  m_Father: {fileID: 4302322569310402}
  m_RootOrder: 1
  m_LocalEulerAnglesHint: {x: -90, y: 0, z: 0}
--- !u!4 &4344670256907710
Transform:
  m_ObjectHideFlags: 1
  m_CorrespondingSourceObject: {fileID: 0}
  m_PrefabInternal: {fileID: 100100000}
  m_GameObject: {fileID: 1415087103389592}
  m_LocalRotation: {x: 3.4296684e-16, y: -0.0000000015603236, z: -0.000000027008355,
    w: 1}
  m_LocalPosition: {x: -0.12588456, y: 0, z: 7.9410254e-14}
  m_LocalScale: {x: 0.4979698, y: 1, z: 1}
  m_Children:
  - {fileID: 4020983941160590}
  m_Father: {fileID: 4795466317524016}
  m_RootOrder: 0
  m_LocalEulerAnglesHint: {x: 0, y: 0, z: 0}
--- !u!4 &4381905994699098
Transform:
  m_ObjectHideFlags: 1
  m_CorrespondingSourceObject: {fileID: 0}
  m_PrefabInternal: {fileID: 100100000}
  m_GameObject: {fileID: 1303837847496732}
  m_LocalRotation: {x: 1.4647253e-15, y: -6.0021795e-23, z: -0.000000040978193, w: 1}
  m_LocalPosition: {x: -0.111592606, y: 0.000000012111664, z: 0.0000000015559891}
  m_LocalScale: {x: 0.4690638, y: 1.0000001, z: 1}
  m_Children:
  - {fileID: 4189864511891856}
  m_Father: {fileID: 4227128000366044}
  m_RootOrder: 0
  m_LocalEulerAnglesHint: {x: 0, y: 0, z: 0}
--- !u!4 &4521704662299462
Transform:
  m_ObjectHideFlags: 1
  m_CorrespondingSourceObject: {fileID: 0}
  m_PrefabInternal: {fileID: 100100000}
  m_GameObject: {fileID: 1945324208440620}
  m_LocalRotation: {x: -0.49999997, y: 0.49999982, z: -0.5000002, w: 0.50000006}
  m_LocalPosition: {x: -0, y: 0.00049730483, z: 0}
  m_LocalScale: {x: 0.17517962, y: 0.40460086, z: 0.40460086}
  m_Children:
  - {fileID: 4633159390412432}
  m_Father: {fileID: 4302322569310402}
  m_RootOrder: 0
  m_LocalEulerAnglesHint: {x: 0, y: 0, z: 0}
--- !u!4 &4633159390412432
Transform:
  m_ObjectHideFlags: 1
  m_CorrespondingSourceObject: {fileID: 0}
  m_PrefabInternal: {fileID: 100100000}
  m_GameObject: {fileID: 1937371849299148}
  m_LocalRotation: {x: 6.123236e-17, y: -6.1232316e-17, z: 0.00000039947417, w: 1}
  m_LocalPosition: {x: -0.33081296, y: 0.000000036334992, z: 3.6239954e-13}
  m_LocalScale: {x: 0.39011586, y: 1, z: 1}
  m_Children:
  - {fileID: 4795466317524016}
  m_Father: {fileID: 4521704662299462}
  m_RootOrder: 0
  m_LocalEulerAnglesHint: {x: 0, y: 0, z: 0}
--- !u!4 &4795466317524016
Transform:
  m_ObjectHideFlags: 1
  m_CorrespondingSourceObject: {fileID: 0}
  m_PrefabInternal: {fileID: 100100000}
  m_GameObject: {fileID: 1317190322284112}
  m_LocalRotation: {x: -9.969271e-15, y: -0.000000043713122, z: -0.0000002280613,
    w: 1}
  m_LocalPosition: {x: -0.32495785, y: 0.000000012111664, z: -0.000000028410252}
  m_LocalScale: {x: 0.38762987, y: 1, z: 1}
  m_Children:
  - {fileID: 4344670256907710}
  m_Father: {fileID: 4633159390412432}
  m_RootOrder: 0
  m_LocalEulerAnglesHint: {x: 0, y: 0, z: 0}
--- !u!4 &4818666077122890
Transform:
  m_ObjectHideFlags: 1
  m_CorrespondingSourceObject: {fileID: 0}
  m_PrefabInternal: {fileID: 100100000}
  m_GameObject: {fileID: 1584962516073872}
  m_LocalRotation: {x: 0.7071068, y: 0, z: 0, w: 0.7071068}
  m_LocalPosition: {x: 0, y: -0, z: 0.1}
  m_LocalScale: {x: 1, y: 1, z: 1}
  m_Children: []
  m_Father: {fileID: 4267816184304960}
  m_RootOrder: 0
  m_LocalEulerAnglesHint: {x: 90, y: 0, z: 0}
--- !u!4 &4866381918158780
Transform:
  m_ObjectHideFlags: 1
  m_CorrespondingSourceObject: {fileID: 0}
  m_PrefabInternal: {fileID: 100100000}
  m_GameObject: {fileID: 1229262043212852}
  m_LocalRotation: {x: -0, y: -0, z: -0, w: 1}
  m_LocalPosition: {x: 0, y: 0, z: 0}
  m_LocalScale: {x: 0.5, y: 0.5, z: 0.5}
  m_Children: []
  m_Father: {fileID: 4302322569310402}
  m_RootOrder: 2
  m_LocalEulerAnglesHint: {x: 0, y: 0, z: 0}
--- !u!23 &23658705452971608
MeshRenderer:
  m_ObjectHideFlags: 1
  m_CorrespondingSourceObject: {fileID: 0}
  m_PrefabInternal: {fileID: 100100000}
  m_GameObject: {fileID: 1925071244973200}
  m_Enabled: 1
  m_CastShadows: 1
  m_ReceiveShadows: 1
  m_DynamicOccludee: 1
  m_MotionVectors: 1
  m_LightProbeUsage: 1
  m_ReflectionProbeUsage: 1
  m_RenderingLayerMask: 4294967295
  m_Materials:
  - {fileID: 2100000, guid: 660b82dcc8e144ee58474ece2927f8d2, type: 2}
  m_StaticBatchInfo:
    firstSubMesh: 0
    subMeshCount: 0
  m_StaticBatchRoot: {fileID: 0}
  m_ProbeAnchor: {fileID: 0}
  m_LightProbeVolumeOverride: {fileID: 0}
  m_ScaleInLightmap: 1
  m_PreserveUVs: 1
  m_IgnoreNormalsForChartDetection: 0
  m_ImportantGI: 0
  m_StitchLightmapSeams: 0
  m_SelectedEditorRenderState: 3
  m_MinimumChartSize: 4
  m_AutoUVMaxDistance: 0.5
  m_AutoUVMaxAngle: 89
  m_LightmapParameters: {fileID: 0}
  m_SortingLayerID: 0
  m_SortingLayer: 0
  m_SortingOrder: 0
--- !u!33 &33068847053050036
MeshFilter:
  m_ObjectHideFlags: 1
  m_CorrespondingSourceObject: {fileID: 0}
  m_PrefabInternal: {fileID: 100100000}
  m_GameObject: {fileID: 1584962516073872}
  m_Mesh: {fileID: 0}
--- !u!33 &33670542328489334
MeshFilter:
  m_ObjectHideFlags: 1
  m_CorrespondingSourceObject: {fileID: 0}
  m_PrefabInternal: {fileID: 100100000}
  m_GameObject: {fileID: 1925071244973200}
  m_Mesh: {fileID: 10210, guid: 0000000000000000e000000000000000, type: 0}
--- !u!54 &54446093939707212
Rigidbody:
  m_ObjectHideFlags: 1
  m_CorrespondingSourceObject: {fileID: 0}
  m_PrefabInternal: {fileID: 100100000}
  m_GameObject: {fileID: 1028824138140006}
  serializedVersion: 2
  m_Mass: 1
  m_Drag: 3
  m_AngularDrag: 0.05
  m_UseGravity: 0
  m_IsKinematic: 1
  m_Interpolate: 0
  m_Constraints: 0
  m_CollisionDetection: 0
--- !u!65 &65254249309108804
BoxCollider:
  m_ObjectHideFlags: 1
  m_CorrespondingSourceObject: {fileID: 0}
  m_PrefabInternal: {fileID: 100100000}
  m_GameObject: {fileID: 1028824138140006}
  m_Material: {fileID: 0}
  m_IsTrigger: 0
  m_Enabled: 1
  serializedVersion: 2
  m_Size: {x: 0.085, y: 0.23, z: 0.085}
  m_Center: {x: 0, y: 0.11, z: 0}
--- !u!82 &82665421538801248
AudioSource:
  m_ObjectHideFlags: 1
  m_CorrespondingSourceObject: {fileID: 0}
  m_PrefabInternal: {fileID: 100100000}
  m_GameObject: {fileID: 1229262043212852}
  m_Enabled: 1
  serializedVersion: 4
  OutputAudioMixerGroup: {fileID: 243542958743197550, guid: 30f3aa683f5543d469208f1bb641c945,
    type: 2}
  m_audioClip: {fileID: 0}
  m_PlayOnAwake: 0
  m_Volume: 1
  m_Pitch: 1
  Loop: 1
  Mute: 0
  Spatialize: 0
  SpatializePostEffects: 0
  Priority: 128
  DopplerLevel: 1
  MinDistance: 1
  MaxDistance: 7
  Pan2D: 0
  rolloffMode: 0
  BypassEffects: 0
  BypassListenerEffects: 0
  BypassReverbZones: 0
  rolloffCustomCurve:
    serializedVersion: 2
    m_Curve:
    - serializedVersion: 3
      time: 0
      value: 1
      inSlope: 0
      outSlope: 0
      tangentMode: 0
      weightedMode: 0
      inWeight: 0.33333334
      outWeight: 0.33333334
    - serializedVersion: 3
      time: 1
      value: 0
      inSlope: 0
      outSlope: 0
      tangentMode: 0
      weightedMode: 0
      inWeight: 0.33333334
      outWeight: 0.33333334
    m_PreInfinity: 2
    m_PostInfinity: 2
    m_RotationOrder: 4
  panLevelCustomCurve:
    serializedVersion: 2
    m_Curve:
    - serializedVersion: 3
      time: 0
      value: 0.992
      inSlope: 0
      outSlope: 0
      tangentMode: 0
      weightedMode: 0
      inWeight: 0.33333334
      outWeight: 0.33333334
    m_PreInfinity: 2
    m_PostInfinity: 2
    m_RotationOrder: 0
  spreadCustomCurve:
    serializedVersion: 2
    m_Curve:
    - serializedVersion: 3
      time: 0
      value: 0
      inSlope: 0
      outSlope: 0
      tangentMode: 0
      weightedMode: 0
      inWeight: 0.33333334
      outWeight: 0.33333334
    m_PreInfinity: 2
    m_PostInfinity: 2
    m_RotationOrder: 0
  reverbZoneMixCustomCurve:
    serializedVersion: 2
    m_Curve:
    - serializedVersion: 3
      time: 0
      value: 1
      inSlope: 0
      outSlope: 0
      tangentMode: 0
      weightedMode: 0
      inWeight: 0.33333334
      outWeight: 0.33333334
    m_PreInfinity: 2
    m_PostInfinity: 2
    m_RotationOrder: 0
--- !u!95 &95057467393681272
Animator:
  serializedVersion: 3
  m_ObjectHideFlags: 1
  m_CorrespondingSourceObject: {fileID: 0}
  m_PrefabInternal: {fileID: 100100000}
  m_GameObject: {fileID: 1028824138140006}
  m_Enabled: 1
  m_Avatar: {fileID: 9000000, guid: df3ca6ab251a63047ada84d14317e4da, type: 3}
  m_Controller: {fileID: 9100000, guid: 579e65ede055da94c90822de2f28a326, type: 2}
  m_CullingMode: 1
  m_UpdateMode: 2
  m_ApplyRootMotion: 0
  m_LinearVelocityBlending: 0
  m_WarningMessage: 
  m_HasTransformHierarchy: 1
  m_AllowConstantClipSamplingOptimization: 1
  m_KeepAnimatorControllerStateOnDisable: 0
--- !u!96 &96007642978714804
TrailRenderer:
  serializedVersion: 2
  m_ObjectHideFlags: 1
  m_CorrespondingSourceObject: {fileID: 0}
  m_PrefabInternal: {fileID: 100100000}
  m_GameObject: {fileID: 1584962516073872}
  m_Enabled: 1
  m_CastShadows: 1
  m_ReceiveShadows: 1
  m_DynamicOccludee: 1
  m_MotionVectors: 1
  m_LightProbeUsage: 0
  m_ReflectionProbeUsage: 0
  m_RenderingLayerMask: 4294967295
  m_Materials:
  - {fileID: 2100000, guid: 03dd2efb474a14658b6da9150dffb4a2, type: 2}
  m_StaticBatchInfo:
    firstSubMesh: 0
    subMeshCount: 0
  m_StaticBatchRoot: {fileID: 0}
  m_ProbeAnchor: {fileID: 0}
  m_LightProbeVolumeOverride: {fileID: 0}
  m_ScaleInLightmap: 1
  m_PreserveUVs: 0
  m_IgnoreNormalsForChartDetection: 0
  m_ImportantGI: 0
  m_StitchLightmapSeams: 0
  m_SelectedEditorRenderState: 3
  m_MinimumChartSize: 4
  m_AutoUVMaxDistance: 0.5
  m_AutoUVMaxAngle: 89
  m_LightmapParameters: {fileID: 0}
  m_SortingLayerID: 0
  m_SortingLayer: 0
  m_SortingOrder: 0
  m_Time: 2.5
  m_Parameters:
    serializedVersion: 2
    widthMultiplier: 2
    widthCurve:
      serializedVersion: 2
      m_Curve:
      - serializedVersion: 3
        time: 0
        value: 1
        inSlope: 0
        outSlope: 0
        tangentMode: 0
        weightedMode: 0
        inWeight: 0.33333334
        outWeight: 0.33333334
      m_PreInfinity: 2
      m_PostInfinity: 2
      m_RotationOrder: 4
    colorGradient:
      serializedVersion: 2
      key0: {r: 1, g: 1, b: 1, a: 0}
      key1: {r: 1, g: 1, b: 1, a: 1}
      key2: {r: 0.49411765, g: 0.49411765, b: 0.49411765, a: 0}
      key3: {r: 0.49411765, g: 0.49411765, b: 0.49411765, a: 0}
      key4: {r: 0.49411765, g: 0.49411765, b: 0.49411765, a: 0}
      key5: {r: 1, g: 1, b: 0, a: 0}
      key6: {r: 0, g: 0, b: 0, a: 0}
      key7: {r: 0, g: 0, b: 0, a: 0}
      ctime0: 0
      ctime1: 65535
      ctime2: 65535
      ctime3: 65535
      ctime4: 65535
      ctime5: 65535
      ctime6: 65535
      ctime7: 0
      atime0: 0
      atime1: 7517
      atime2: 65535
      atime3: 65535
      atime4: 0
      atime5: 0
      atime6: 0
      atime7: 0
      m_Mode: 0
      m_NumColorKeys: 2
      m_NumAlphaKeys: 3
    numCornerVertices: 5
    numCapVertices: 3
    alignment: 0
    textureMode: 0
    generateLightingData: 0
  m_MinVertexDistance: 0.5
  m_Autodestruct: 0
  m_Emitting: 1
--- !u!114 &114092344845318102
MonoBehaviour:
  m_ObjectHideFlags: 1
  m_CorrespondingSourceObject: {fileID: 0}
  m_PrefabInternal: {fileID: 100100000}
  m_GameObject: {fileID: 1028824138140006}
  m_Enabled: 1
  m_EditorHideFlags: 0
  m_Script: {fileID: 11500000, guid: 48546a37106ae474c9854776c588eedc, type: 3}
  m_Name: 
  m_EditorClassIdentifier: 
  _curState: 0
  _bubblePrefab: {fileID: 1491106757313288, guid: 0f0c4648b38bd4d09b726dd5bfd16753,
    type: 2}
  _beginSpawnRate: 8
  _finalSpawnRate: 2
  _spawnRateRamp:
    serializedVersion: 2
    m_Curve:
    - serializedVersion: 3
      time: 0
      value: 0
      inSlope: 0
      outSlope: 0
      tangentMode: 0
      weightedMode: 0
      inWeight: 0.33333334
      outWeight: 0.33333334
    - serializedVersion: 3
      time: 1
      value: 1
      inSlope: 2.990627
      outSlope: 2.990627
      tangentMode: 0
      weightedMode: 0
      inWeight: 0.33333334
      outWeight: 0.33333334
    m_PreInfinity: 2
    m_PostInfinity: 2
    m_RotationOrder: 0
  _growthTimeRange:
    min: 7
    max: 12
  _growthSizeRange:
    min: 0.01
    max: 0.05
  _dissolveCurve:
    serializedVersion: 2
    m_Curve:
    - serializedVersion: 3
      time: 0
      value: 0
      inSlope: 2
      outSlope: 2
      tangentMode: 0
      weightedMode: 0
      inWeight: 0.33333334
      outWeight: 0.33333334
    - serializedVersion: 3
      time: 1
      value: 1
      inSlope: 0
      outSlope: 0
      tangentMode: 0
      weightedMode: 0
      inWeight: 0.33333334
      outWeight: 0.33333334
    m_PreInfinity: 2
    m_PostInfinity: 2
    m_RotationOrder: 0
  _waterDecayReturnTime: 20
  _currentSpawnRate: 0
--- !u!114 &114169642532466072
MonoBehaviour:
  m_ObjectHideFlags: 1
  m_CorrespondingSourceObject: {fileID: 0}
  m_PrefabInternal: {fileID: 100100000}
  m_GameObject: {fileID: 1028824138140006}
  m_Enabled: 1
  m_EditorHideFlags: 0
  m_Script: {fileID: 11500000, guid: c41ac8717533e4dfe950929dae1318b3, type: 3}
  m_Name: 
  m_EditorClassIdentifier: 
  _grabTransform: {fileID: 0}
  _carryable: 0
  _grabbed: 0
  _grabberBurdenInterp: 0
--- !u!114 &114174503958260724
MonoBehaviour:
  m_ObjectHideFlags: 1
  m_CorrespondingSourceObject: {fileID: 0}
  m_PrefabInternal: {fileID: 100100000}
  m_GameObject: {fileID: 1028824138140006}
  m_Enabled: 1
  m_EditorHideFlags: 0
  m_Script: {fileID: 11500000, guid: 080f0cb5dcfc64ee99d5d9ac47120a21, type: 3}
  m_Name: 
  m_EditorClassIdentifier: 
  _baseGrowthRate: 0.0038
  _scaleMultiplierRange: {x: 8, y: 12}
  _scaleRatios:
  - {x: 2, y: 1}
  - {x: 1, y: 1}
  - {x: 1, y: 1.5}
  _wateredGrowthRate: 0.1
  _curPercentAnimated: 0
  _curStage: 0
  _heighestLeaf: {fileID: 4189864511891856}
  _droppingItems:
  - {fileID: 1356359172527236, guid: bbfef1f81afcefc438cf9d537e7f0931, type: 2}
  - {fileID: 1261253386730094, guid: bc1c0a0bd8a10a14d966be28e3d9fcb1, type: 2}
  - {fileID: 1631419253260572, guid: e7e4ccc23b3b8416c994f33a1840c8c6, type: 2}
  _punishObject: {fileID: 1884083101344492, guid: 888d79063e07f4951aaa8eaee32addcc,
    type: 2}
  _coverSpawnerPrefab: {fileID: 1581055790355646, guid: 35a19a2c0c79e41f88b49cfde262634d,
    type: 2}
  _mediumSpawnables:
  - {fileID: 1957489743728246, guid: 83b5e0e2c650c804e98215001deaed97, type: 2}
  SpawnState: 0
  _bStemRoot: {fileID: 4521704662299462}
  _leafPrefab: {fileID: 1248963832722794, guid: a0521c65f58601b43975af7e8620d049,
    type: 2}
--- !u!114 &114202066366666556
MonoBehaviour:
  m_ObjectHideFlags: 1
  m_CorrespondingSourceObject: {fileID: 0}
  m_PrefabInternal: {fileID: 100100000}
  m_GameObject: {fileID: 1229262043212852}
  m_Enabled: 1
  m_EditorHideFlags: 0
  m_Script: {fileID: 11500000, guid: 40c64b83800cda94b89bea86311e91e1, type: 3}
  m_Name: 
  m_EditorClassIdentifier: 
  _plantGrowthClip: {fileID: 8300000, guid: 720f648bdfd9f48c78ea021f2a1e1c80, type: 3}
  _growthSoundCurve:
    serializedVersion: 2
    m_Curve:
    - serializedVersion: 3
      time: 0
      value: 0
      inSlope: 0.399777
      outSlope: 0.399777
      tangentMode: 0
      weightedMode: 0
      inWeight: 0.33333334
      outWeight: 0.33333334
    - serializedVersion: 3
      time: 1.0015259
      value: 0
      inSlope: -9.293058
      outSlope: -9.293058
      tangentMode: 0
      weightedMode: 0
      inWeight: 0.33333334
      outWeight: 0.33333334
    m_PreInfinity: 2
    m_PostInfinity: 2
    m_RotationOrder: 0
  _shakeAudioClipArray:
  - {fileID: 8300000, guid: d208ca57b5bb441d3ae83d1dfecfd646, type: 3}
  - {fileID: 8300000, guid: 521dc9a54c0d449c8957f001306efbd9, type: 3}
  - {fileID: 8300000, guid: 981c8508342064235b092b2571910adb, type: 3}
  - {fileID: 8300000, guid: e3fdcbb0f1d0a47d8b08a3a2835111a6, type: 3}
  _plantFadeClip: {fileID: 8300000, guid: dac7742a3e29d4eab8870fc908406202, type: 3}
--- !u!114 &114261372939883760
MonoBehaviour:
  m_ObjectHideFlags: 1
  m_CorrespondingSourceObject: {fileID: 0}
  m_PrefabInternal: {fileID: 100100000}
  m_GameObject: {fileID: 1028824138140006}
  m_Enabled: 1
  m_EditorHideFlags: 0
  m_Script: {fileID: 11500000, guid: 96d2b9fdd69f746c287f1e9b9386afbe, type: 3}
  m_Name: 
  m_EditorClassIdentifier: 
--- !u!114 &114731488935830358
MonoBehaviour:
  m_ObjectHideFlags: 1
  m_CorrespondingSourceObject: {fileID: 0}
  m_PrefabInternal: {fileID: 100100000}
  m_GameObject: {fileID: 1028824138140006}
  m_Enabled: 1
  m_EditorHideFlags: 0
  m_Script: {fileID: 11500000, guid: ba7f7241d0b3c46ac895ab052f9b1516, type: 3}
  m_Name: 
  m_EditorClassIdentifier: 
  parentPickupable: {fileID: 0}
  _lockedRotation: 1
--- !u!114 &114965072194174498
MonoBehaviour:
  m_ObjectHideFlags: 1
  m_CorrespondingSourceObject: {fileID: 0}
  m_PrefabInternal: {fileID: 100100000}
  m_GameObject: {fileID: 1028824138140006}
  m_Enabled: 1
  m_EditorHideFlags: 0
  m_Script: {fileID: 11500000, guid: 383399452f6ba4461be2a59e661615d4, type: 3}
  m_Name: 
  m_EditorClassIdentifier: 
  _type: 1
  _deathDuration: 0
  _DeathDurationRange: {x: 320, y: 360}
  _DeathTimer: 0
  _baseDecayRate: 1
  _curDecayRate: 0
--- !u!137 &137425570155143246
SkinnedMeshRenderer:
  m_ObjectHideFlags: 1
  m_CorrespondingSourceObject: {fileID: 0}
  m_PrefabInternal: {fileID: 100100000}
  m_GameObject: {fileID: 1326073773641576}
  m_Enabled: 1
  m_CastShadows: 1
  m_ReceiveShadows: 1
  m_DynamicOccludee: 1
  m_MotionVectors: 1
  m_LightProbeUsage: 1
  m_ReflectionProbeUsage: 1
  m_RenderingLayerMask: 4294967295
  m_Materials:
  - {fileID: 2100000, guid: 5347dc33fcfce7349b4f55af1e6ce1e5, type: 2}
  m_StaticBatchInfo:
    firstSubMesh: 0
    subMeshCount: 0
  m_StaticBatchRoot: {fileID: 0}
  m_ProbeAnchor: {fileID: 0}
  m_LightProbeVolumeOverride: {fileID: 0}
  m_ScaleInLightmap: 1
  m_PreserveUVs: 0
  m_IgnoreNormalsForChartDetection: 0
  m_ImportantGI: 0
  m_StitchLightmapSeams: 0
  m_SelectedEditorRenderState: 3
  m_MinimumChartSize: 4
  m_AutoUVMaxDistance: 0.5
  m_AutoUVMaxAngle: 89
  m_LightmapParameters: {fileID: 0}
  m_SortingLayerID: 0
  m_SortingLayer: 0
  m_SortingOrder: 0
  serializedVersion: 2
  m_Quality: 0
  m_UpdateWhenOffscreen: 0
  m_SkinnedMotionVectors: 1
  m_Mesh: {fileID: 4300000, guid: df3ca6ab251a63047ada84d14317e4da, type: 3}
  m_Bones:
  - {fileID: 4521704662299462}
  - {fileID: 4633159390412432}
  - {fileID: 4795466317524016}
  - {fileID: 4344670256907710}
  - {fileID: 4020983941160590}
  - {fileID: 4181576894049402}
  - {fileID: 4227128000366044}
  - {fileID: 4381905994699098}
  - {fileID: 4189864511891856}
  m_BlendShapeWeights: []
  m_RootBone: {fileID: 4521704662299462}
  m_AABB:
    m_Center: {x: -0.24737987, y: 0, z: 0.000000052154064}
    m_Extent: {x: 0.24787718, y: 0.043430887, z: 0.04410088}
  m_DirtyAABB: 0
